Unit
nom,Bonnie
sexe, 2
type, 4
stat, 9660, 3662, 3017, 3188
imp, 2400, 960, 960, 960

origine, buff,efficacite, duree, cible, probabilite
probabilite_0 = 100

special, "raise atk limit to 200k"

SP,Hot,0,0,0,0

SP,all_unit_atk_boost,0,0,0,0
SP,fire_unit_atk_boost,0,0,0,0
SP,water_unit_atk_boost,0,0,0,0
SP,earth_unit_atk_boost,0,0,0,0
SP,thunder_unit_atk_boost,0,0,0,0
SP,light_unit_atk_boost,0,0,0,0
SP,dark_unit_atk_boost,0,0,0,0

SP,all_unit_def_boost,0,0,0,0
SP,fire_unit_def_boost,0,0,0,0
SP,water_unit_def_boost,0,0,0,0
SP,earth_unit_def_boost,0,0,0,0
SP,thunder_unit_def_boost,0,0,0,0
SP,light_unit_def_boost,0,0,0,0
SP,dark_unit_def_boost,0,0,0,0

SP,all_unit_rec_boost,0,0,0,0
SP,fire_unit_rec_boost,0,0,0,0
SP,water_unit_rec_boost,0,0,0,0
SP,earth_unit_rec_boost,0,0,0,0
SP,thunder_unit_rec_boost,0,0,0,0
SP,light_unit_rec_boost,0,0,0,0
SP,dark_unit_rec_boost,0,0,0,0

SP,all_unit_hp_boost,0,0,0,0
SP,fire_unit_hp_boost,0,0,0,0
SP,water_unit_hp_boost,0,0,0,0
SP,earth_unit_hp_boost,0,0,0,0
SP,thunder_unit_hp_boost,0,0,0,0
SP,light_unit_hp_boost,0,0,0,0
SP,dark_unit_hp_boost,0,0,0,0

SP,max_hp_boost,0,0,0,0

SP,crit_rate_boost,0,0,0,0

SP,all_unit_atk_reduc,0,0,0,0
SP,fire_unit_atk_reduc,0,0,0,0
SP,water_unit_atk_reduc,0,0,0,0
SP,earth_unit_atk_reduc,0,0,0,0
SP,thunder_unit_atk_reduc,0,0,0,0
SP,light_unit_atk_reduc,0,0,0,0
SP,dark_unit_atk_reduc,0,0,0,0

SP,all_unit_def_reduc,0,0,0,0
SP,fire_unit_def_reduc,0,0,0,0
SP,water_unit_def_reduc,0,0,0,0
SP,earth_unit_def_reduc,0,0,0,0
SP,thunder_unit_def_reduc,0,0,0,0
SP,light_unit_def_reduc,0,0,0,0
SP,dark_unit_def_reduc,0,0,0,0

SP,all_unit_rec_reduc,0,0,0,0
SP,fire_unit_rec_reduc,0,0,0,0
SP,water_unit_rec_reduc,0,0,0,0
SP,earth_unit_rec_reduc,0,0,0,0
SP,thunder_unit_rec_reduc,0,0,0,0
SP,light_unit_rec_reduc,0,0,0,0
SP,dark_unit_rec_reduc,0,0,0,0

SP,bc_drop_boost,0,0,0,0
SP,hc_drop_boost,0,0,0,0
SP,zel_drop_boost,0,0,0,0
SP,karma_drop_boost,0,0,0,0
SP,item_drop_boost,0,0,0,0

SP,ko_resistance,0,0,0,0

SP,self_atk_boost,120,0,0,0
SP,self_def_boost,120,0,0,0
SP,self_rec_boost,120,0,0,0
SP,self_hp_boost,120,0,0,0

SP,negates_atk_reduc,100,0,0,0
SP,negates_def_reduc,100,0,0,0
SP,negates_rec_reduc,100,0,0,0

SP,cleanse_atk_reduc,0,0,0,0
SP,cleanse_def_reduc,0,0,0,0
SP,cleanse_rec_reduc,0,0,0,0

SP,cleanse_poison,0,0,0,0
SP,cleanse_weakness,0,0,0,0
SP,cleanse_sickness,0,0,0,0
SP,cleanse_injury,0,0,0,0
SP,cleanse_curse,0,0,0,0
SP,cleanse_paralysis,0,0,0,0

SP,inflict_poison,0,0,0,0
SP,inflict_weakness,0,0,0,0
SP,inflict_sickness,0,0,0,0
SP,inflict_injury,0,0,0,0
SP,inflict_curse,0,0,0,0
SP,inflict_paralysis,0,0,0,0

SP,negates_poison,100,0,0,0
SP,negates_weakness,100,0,0,0
SP,negates_sickness,100,0,0,0
SP,negates_injury,100,0,0,0
SP,negates_curse,100,0,0,0
SP,negates_paralysis,100,0,0,0

SP,counter_poison,0,0,0,0
SP,counter_weakness,0,0,0,0
SP,counter_sickness,0,0,0,0
SP,counter_injury,0,0,0,0
SP,counter_curse,0,0,0,0
SP,counter_paralysis,0,0,0,0

SP,add_poison_to_attack,0,0,0,0
SP,add_weakness_to_attack,0,0,0,0
SP,add_sickness_to_attack,0,0,0,0
SP,add_injury_to_attack,0,0,0,0
SP,add_curse_to_attack,0,0,0,0
SP,add_paralysis_to_attack,0,0,0,0

SP,attack_boost_on_afflicted_foe,150,0,0,0

SP,add_fire_to_attack,0,0,0,0
SP,add_water_to_attack,0,0,0,0
SP,add_earth_to_attack,0,0,0,0
SP,add_thunder_to_attack,0,0,0,0
SP,add_light_to_attack,0,0,0,0
SP,add_dark_to_attack,0,0,0,0

SP,revive,0,0,0,0
SP,lifesteal,0,0,0,0


SP,resistance_crit_damage,0,0,0,0
SP,resistance_element_damage,0,0,0,0
SP,resistance_spark_damage,0,0,0,0
SP,resistance_propotional_hp_damage,0,0,0,0
SP,resistance_aoe_damage,0,0,0,0
SP,resistance_ST_damage,0,0,0,0
SP,resistance_dot_damage,0,0,0,0
SP,resistance_normal_attack_damage,0,0,0,0

SP,guard_mitigation,0,0,0,0
SP,dot_mitigation,0,0,0,0

SP,all_mitigation,0,0,0,0
SP,fire_mitigation,0,0,0,0
SP,water_mitigation,0,0,0,0
SP,earth_mitigation,0,0,0,0
SP,thunder_mitigation,0,0,0,0
SP,light_mitigation,0,0,0,0
SP,dark_mitigation,0,0,0,0

SP,fire_barrier,0,0,0,0
SP,water_barrier,0,0,0,0
SP,earth_barrier,0,0,0,0
SP,thunder_barrier,0,0,0,0
SP,light_barrier,0,0,0,0
SP,dark_barrier,0,0,0,0

SP,fire_attack_boost,0,0,0,0
SP,water_attack_boost,0,0,0,0
SP,earth_attack_boost,0,0,0,0
SP,thunder_attack_boost,300,0,0,0
SP,light_attack_boost,0,0,0,0
SP,dark_attack_boost,0,0,0,0

SP,fire_spark_boost,0,0,0,0
SP,water_spark_boost,0,0,0,0
SP,earth_spark_boost,0,0,0,0
SP,thunder_spark_boost,0,0,0,0
SP,light_spark_boost,0,0,0,0
SP,dark_spark_boost,0,0,0,0

SP,all_crit_damage_boost,0,0,0,0
SP,fire_crit_damage_boost,0,0,0,0
SP,water_crit_damage_boost,0,0,0,0
SP,earth_crit_damage_boost,0,0,0,0
SP,thunder_crit_damage_boost,0,0,0,0
SP,light_crit_damage_boost,0,0,0,0
SP,dark_crit_damage_boost,0,0,0,0

SP,bb_fill_turn_end,0,0,0,0
SP,bb_fill_turn_start,0,0,0,0
SP,bb_fill_when_attacked,0,0,0,0
SP,bb_fill_on_spark,0,0,0,0
SP,bb_fill_on_guard,0,0,0,0

SP,heal_when_attacked,0,0,0,0
SP,heal_on_spark,0,0,0,0

SP,ignore_defense,0,0,0,0

SP,spark_vulnerability,0,0,0,0
SP,crit_vulnerability,0,0,0,0
SP,element_vulnerability,0,0,0,0

SP,damage_spark_boost,250,0,0,0
SP,bc_spark_boost,0,0,0,0
SP,hc_spark_boost,0,0,0,0
SP,item_spark_boost,0,0,0,0

SP,def_to_atk,0,0,0,0
SP,rec_to_atk,0,0,0,0
SP,hp_to_atk,0,0,0,0

SP,atk_to_def,0,0,0,0
SP,rec_to_def,0,0,0,0
SP,hp_to_def,0,0,0,0

SP,atk_to_rec,0,0,0,0
SP,def_to_rec,0,0,0,0
SP,hp_to_rec,0,0,0,0

SP,atk_to_hp,0,0,0,0
SP,def_to_hp,0,0,0,0
SP,rec_to_hp,0,0,0,0

SP,self_def_to_atk,0,0,0,0
SP,self_rec_to_atk,0,0,0,0
SP,self_hp_to_atk,0,0,0,0

SP,self_atk_to_def,0,0,0,0
SP,self_rec_to_def,0,0,0,0
SP,self_hp_to_def,0,0,0,0

SP,self_atk_to_rec,0,0,0,0
SP,self_def_to_rec,0,0,0,0
SP,self_hp_to_rec,0,0,0,0

SP,self_atk_to_hp,0,0,0,0
SP,self_def_to_hp,0,0,0,0
SP,self_rec_to_hp,0,0,0,0

SP,hit_count_boost,0,0,0,0

SP,bb_drain,0,0,0,0
SP,LS_unlock,0,0,0,0
SP,negates_LS_lock,0,0,0,0
SP,sphere_unlock,0,0,0,0
SP,negates_sphere_lock,0,0,0,0
SP,ES_unlock,0,0,0,0
SP,negates_ES_lock,0,0,0,0

SP,OD_fill,0,0,0,0
SP,OD_fill_turn_start,0,0,0,0
SP,OD_fill_turn_end,0,0,0,0
SP,OD_fill_rate_boost,0,0,0,0

SP,OD_drain_negation,0,0,0,0

SP,Dot,0,0,0,0
SP,BB_atk_boost,0,0,0,0

SP,damage_counter,0,0,0,0
SP,bc_efficacy_boost,0,0,0,0
SP,bc_efficacy_reduc,0,0,0,0

SP,extra_action,0,0,0,0
SP,exp_boost,0,0,0,0

SP,taunt,0,0,0,0
SP,stealth,0,0,0,0
SP,evasion,0,0,0,0

SP,skip_turn,0,0,0,0
SP,time_stop,0,0,0,0

SP,max_hp_reduc,0,0,0,0
SP,bb_recast,0,0,0,0

LS,Hot,0,0,0,0

LS,all_unit_atk_boost,140,0,1,0
LS,fire_unit_atk_boost,0,0,0,0
LS,water_unit_atk_boost,0,0,0,0
LS,earth_unit_atk_boost,0,0,0,0
LS,thunder_unit_atk_boost,0,0,0,0
LS,light_unit_atk_boost,0,0,0,0
LS,dark_unit_atk_boost,0,0,0,0

LS,all_unit_def_boost,120,0,1,0
LS,fire_unit_def_boost,0,0,0,0
LS,water_unit_def_boost,0,0,0,0
LS,earth_unit_def_boost,0,0,0,0
LS,thunder_unit_def_boost,0,0,0,0
LS,light_unit_def_boost,0,0,0,0
LS,dark_unit_def_boost,0,0,0,0

LS,all_unit_rec_boost,120,0,1,0
LS,fire_unit_rec_boost,0,0,0,0
LS,water_unit_rec_boost,0,0,0,0
LS,earth_unit_rec_boost,0,0,0,0
LS,thunder_unit_rec_boost,0,0,0,0
LS,light_unit_rec_boost,0,0,0,0
LS,dark_unit_rec_boost,0,0,0,0

LS,all_unit_hp_boost,140,0,1,0
LS,fire_unit_hp_boost,0,0,0,0
LS,water_unit_hp_boost,0,0,0,0
LS,earth_unit_hp_boost,0,0,0,0
LS,thunder_unit_hp_boost,0,0,0,0
LS,light_unit_hp_boost,0,0,0,0
LS,dark_unit_hp_boost,0,0,0,0

LS,max_hp_boost,0,0,0,0

LS,crit_rate_boost,0,0,0,0

LS,all_unit_atk_reduc,0,0,0,0
LS,fire_unit_atk_reduc,0,0,0,0
LS,water_unit_atk_reduc,0,0,0,0
LS,earth_unit_atk_reduc,0,0,0,0
LS,thunder_unit_atk_reduc,0,0,0,0
LS,light_unit_atk_reduc,0,0,0,0
LS,dark_unit_atk_reduc,0,0,0,0

LS,all_unit_def_reduc,0,0,0,0
LS,fire_unit_def_reduc,0,0,0,0
LS,water_unit_def_reduc,0,0,0,0
LS,earth_unit_def_reduc,0,0,0,0
LS,thunder_unit_def_reduc,0,0,0,0
LS,light_unit_def_reduc,0,0,0,0
LS,dark_unit_def_reduc,0,0,0,0

LS,all_unit_rec_reduc,0,0,0,0
LS,fire_unit_rec_reduc,0,0,0,0
LS,water_unit_rec_reduc,0,0,0,0
LS,earth_unit_rec_reduc,0,0,0,0
LS,thunder_unit_rec_reduc,0,0,0,0
LS,light_unit_rec_reduc,0,0,0,0
LS,dark_unit_rec_reduc,0,0,0,0

LS,bc_drop_boost,0,0,0,0
LS,hc_drop_boost,0,0,0,0
LS,zel_drop_boost,0,0,0,0
LS,karma_drop_boost,0,0,0,0
LS,item_drop_boost,0,0,0,0

LS,ko_resistance,0,0,0,0

LS,self_atk_boost,0,0,0,0
LS,self_def_boost,0,0,0,0
LS,self_rec_boost,0,0,0,0
LS,self_hp_boost,0,0,0,0

LS,negates_atk_reduc,0,0,0,0
LS,negates_def_reduc,0,0,0,0
LS,negates_rec_reduc,0,0,0,0

LS,cleanse_atk_reduc,0,0,0,0
LS,cleanse_def_reduc,0,0,0,0
LS,cleanse_rec_reduc,0,0,0,0

LS,cleanse_poison,0,0,0,0
LS,cleanse_weakness,0,0,0,0
LS,cleanse_sickness,0,0,0,0
LS,cleanse_injury,0,0,0,0
LS,cleanse_curse,0,0,0,0
LS,cleanse_paralysis,0,0,0,0

LS,inflict_poison,0,0,0,0
LS,inflict_weakness,0,0,0,0
LS,inflict_sickness,0,0,0,0
LS,inflict_injury,0,0,0,0
LS,inflict_curse,0,0,0,0
LS,inflict_paralysis,0,0,0,0

LS,negates_poison,0,0,0,0
LS,negates_weakness,0,0,0,0
LS,negates_sickness,0,0,0,0
LS,negates_injury,0,0,0,0
LS,negates_curse,0,0,0,0
LS,negates_paralysis,0,0,0,0

LS,counter_poison,0,0,0,0
LS,counter_weakness,0,0,0,0
LS,counter_sickness,0,0,0,0
LS,counter_injury,0,0,0,0
LS,counter_curse,0,0,0,0
LS,counter_paralysis,0,0,0,0

LS,add_poison_to_attack,0,0,0,0
LS,add_weakness_to_attack,0,0,0,0
LS,add_sickness_to_attack,0,0,0,0
LS,add_injury_to_attack,0,0,0,0
LS,add_curse_to_attack,0,0,0,0
LS,add_paralysis_to_attack,0,0,0,0

LS,attack_boost_on_afflicted_foe,0,0,0,0

LS,add_fire_to_attack,0,0,0,0
LS,add_water_to_attack,0,0,0,0
LS,add_earth_to_attack,0,0,0,0
LS,add_thunder_to_attack,0,0,0,0
LS,add_light_to_attack,0,0,0,0
LS,add_dark_to_attack,0,0,0,0

LS,revive,0,0,0,0
LS,lifesteal,0,0,0,0


LS,resistance_crit_damage,0,0,0,0
LS,resistance_element_damage,0,0,0,0
LS,resistance_spark_damage,0,0,0,0
LS,resistance_propotional_hp_damage,0,0,0,0
LS,resistance_aoe_damage,0,0,0,0
LS,resistance_ST_damage,0,0,0,0
LS,resistance_dot_damage,0,0,0,0
LS,resistance_normal_attack_damage,0,0,0,0

LS,guard_mitigation,0,0,0,0
LS,dot_mitigation,0,0,0,0

LS,all_mitigation,0,0,0,0
LS,fire_mitigation,0,0,0,0
LS,water_mitigation,0,0,0,0
LS,earth_mitigation,0,0,0,0
LS,thunder_mitigation,0,0,0,0
LS,light_mitigation,0,0,0,0
LS,dark_mitigation,0,0,0,0

LS,fire_barrier,0,0,0,0
LS,water_barrier,0,0,0,0
LS,earth_barrier,0,0,0,0
LS,thunder_barrier,0,0,0,0
LS,light_barrier,0,0,0,0
LS,dark_barrier,0,0,0,0

LS,fire_attack_boost,0,0,0,0
LS,water_attack_boost,0,0,0,0
LS,earth_attack_boost,0,0,0,0
LS,thunder_attack_boost,0,0,0,0
LS,light_attack_boost,0,0,0,0
LS,dark_attack_boost,0,0,0,0

LS,fire_spark_boost,0,0,0,0
LS,water_spark_boost,0,0,0,0
LS,earth_spark_boost,0,0,0,0
LS,thunder_spark_boost,0,0,0,0
LS,light_spark_boost,0,0,0,0
LS,dark_spark_boost,0,0,0,0

LS,all_crit_damage_boost,0,0,0,0
LS,fire_crit_damage_boost,0,0,0,0
LS,water_crit_damage_boost,0,0,0,0
LS,earth_crit_damage_boost,0,0,0,0
LS,thunder_crit_damage_boost,0,0,0,0
LS,light_crit_damage_boost,0,0,0,0
LS,dark_crit_damage_boost,0,0,0,0

LS,bb_cost_reduc,30,0,1,0
LS,bb_fill_turn_end,0,0,0,0
LS,bb_fill_turn_start,0,0,0,0
LS,bb_fill_when_attacked,0,0,0,0
LS,bb_fill_on_spark,3.5,0,1,0
LS,bb_fill_on_guard,0,0,0,0

LS,heal_when_attacked,0,0,0,0
LS,heal_on_spark,0,0,0,0

LS,ignore_defense,0,0,0,0

LS,spark_vulnerability,0,0,0,0
LS,crit_vulnerability,0,0,0,0
LS,element_vulnerability,0,0,0,0

LS,damage_spark_boost,0,0,0,0
LS,bc_spark_boost,0,0,0,0
LS,hc_spark_boost,0,0,0,0
LS,item_spark_boost,0,0,0,0

LS,def_to_atk,0,0,0,0
LS,rec_to_atk,0,0,0,0
LS,hp_to_atk,0,0,0,0

LS,atk_to_def,0,0,0,0
LS,rec_to_def,0,0,0,0
LS,hp_to_def,0,0,0,0

LS,atk_to_rec,0,0,0,0
LS,def_to_rec,0,0,0,0
LS,hp_to_rec,0,0,0,0

LS,atk_to_hp,0,0,0,0
LS,def_to_hp,0,0,0,0
LS,rec_to_hp,0,0,0,0

LS,self_def_to_atk,0,0,0,0
LS,self_rec_to_atk,0,0,0,0
LS,self_hp_to_atk,0,0,0,0

LS,self_atk_to_def,0,0,0,0
LS,self_rec_to_def,0,0,0,0
LS,self_hp_to_def,0,0,0,0

LS,self_atk_to_rec,0,0,0,0
LS,self_def_to_rec,0,0,0,0
LS,self_hp_to_rec,0,0,0,0

LS,self_atk_to_hp,0,0,0,0
LS,self_def_to_hp,0,0,0,0
LS,self_rec_to_hp,0,0,0,0

LS,hit_count_boost,0,0,0,0

LS,bb_drain,0,0,0,0
LS,LS_unlock,0,0,0,0
LS,negates_LS_lock,0,0,0,0
LS,sphere_unlock,0,0,0,0
LS,negates_sphere_lock,0,0,0,0
LS,ES_unlock,0,0,0,0
LS,negates_ES_lock,0,0,0,0

LS,OD_fill,0,0,0,0
LS,OD_fill_turn_start,0,0,0,0
LS,OD_fill_turn_end,0,0,0,0
LS,OD_fill_rate_boost,0,0,0,0

LS,OD_drain_negation,0,0,0,0

LS,Dot,0,0,0,0
LS,BB_atk_boost,400,0,1,0

LS,damage_counter,0,0,0,0
LS,bc_efficacy_boost,70,0,1,0
LS,bc_efficacy_reduc,0,0,0,0

LS,extra_action,0,0,0,0
LS,exp_boost,0,0,0,0

LS,taunt,0,0,0,0
LS,stealth,0,0,0,0
LS,evasion,0,0,0,0

LS,skip_turn,0,0,0,0
LS,time_stop,0,0,0,0

LS,max_hp_reduc,0,0,0,0
LS,bb_recast,0,0,0,0

ES,Hot,0,0,0,0

ES,all_unit_atk_boost,0,0,0,0
ES,fire_unit_atk_boost,0,0,0,0
ES,water_unit_atk_boost,0,0,0,0
ES,earth_unit_atk_boost,0,0,0,0
ES,thunder_unit_atk_boost,0,0,0,0
ES,light_unit_atk_boost,0,0,0,0
ES,dark_unit_atk_boost,0,0,0,0

ES,all_unit_def_boost,0,0,0,0
ES,fire_unit_def_boost,0,0,0,0
ES,water_unit_def_boost,0,0,0,0
ES,earth_unit_def_boost,0,0,0,0
ES,thunder_unit_def_boost,0,0,0,0
ES,light_unit_def_boost,0,0,0,0
ES,dark_unit_def_boost,0,0,0,0

ES,all_unit_rec_boost,0,0,0,0
ES,fire_unit_rec_boost,0,0,0,0
ES,water_unit_rec_boost,0,0,0,0
ES,earth_unit_rec_boost,0,0,0,0
ES,thunder_unit_rec_boost,0,0,0,0
ES,light_unit_rec_boost,0,0,0,0
ES,dark_unit_rec_boost,0,0,0,0

ES,max_hp_boost,0,0,0,0

ES,crit_rate_boost,0,0,0,0

ES,all_unit_atk_reduc,0,0,0,0
ES,fire_unit_atk_reduc,0,0,0,0
ES,water_unit_atk_reduc,0,0,0,0
ES,earth_unit_atk_reduc,0,0,0,0
ES,thunder_unit_atk_reduc,0,0,0,0
ES,light_unit_atk_reduc,0,0,0,0
ES,dark_unit_atk_reduc,0,0,0,0

ES,all_unit_def_reduc,0,0,0,0
ES,fire_unit_def_reduc,0,0,0,0
ES,water_unit_def_reduc,0,0,0,0
ES,earth_unit_def_reduc,0,0,0,0
ES,thunder_unit_def_reduc,0,0,0,0
ES,light_unit_def_reduc,0,0,0,0
ES,dark_unit_def_reduc,0,0,0,0

ES,all_unit_rec_reduc,0,0,0,0
ES,fire_unit_rec_reduc,0,0,0,0
ES,water_unit_rec_reduc,0,0,0,0
ES,earth_unit_rec_reduc,0,0,0,0
ES,thunder_unit_rec_reduc,0,0,0,0
ES,light_unit_rec_reduc,0,0,0,0
ES,dark_unit_rec_reduc,0,0,0,0

ES,bc_drop_boost,0,0,0,0
ES,hc_drop_boost,0,0,0,0
ES,zel_drop_boost,0,0,0,0
ES,karma_drop_boost,0,0,0,0
ES,item_drop_boost,0,0,0,0

ES,ko_resistance,0,0,0,0

ES,self_atk_boost,0,0,0,0
ES,self_def_boost,0,0,0,0
ES,self_rec_boost,0,0,0,0

ES,negates_atk_reduc,0,0,0,0
ES,negates_def_reduc,0,0,0,0
ES,negates_rec_reduc,0,0,0,0

ES,cleanse_atk_reduc,0,0,0,0
ES,cleanse_def_reduc,0,0,0,0
ES,cleanse_rec_reduc,0,0,0,0

ES,cleanse_poison,0,0,0,0
ES,cleanse_weakness,0,0,0,0
ES,cleanse_sickness,0,0,0,0
ES,cleanse_injury,0,0,0,0
ES,cleanse_curse,0,0,0,0
ES,cleanse_paralysis,0,0,0,0

ES,inflict_poison,0,0,0,0
ES,inflict_weakness,0,0,0,0
ES,inflict_sickness,0,0,0,0
ES,inflict_injury,0,0,0,0
ES,inflict_curse,0,0,0,0
ES,inflict_paralysis,0,0,0,0

ES,negates_poison,0,0,0,0
ES,negates_weakness,0,0,0,0
ES,negates_sickness,0,0,0,0
ES,negates_injury,0,0,0,0
ES,negates_curse,0,0,0,0
ES,negates_paralysis,0,0,0,0

ES,counter_poison,0,0,0,0
ES,counter_weakness,0,0,0,0
ES,counter_sickness,0,0,0,0
ES,counter_injury,0,0,0,0
ES,counter_curse,0,0,0,0
ES,counter_paralysis,0,0,0,0

ES,add_poison_to_attack,0,0,0,0
ES,add_weakness_to_attack,0,0,0,0
ES,add_sickness_to_attack,0,0,0,0
ES,add_injury_to_attack,0,0,0,0
ES,add_curse_to_attack,0,0,0,0
ES,add_paralysis_to_attack,0,0,0,0

ES,attack_boost_on_afflicted_foe,50,0,1,0

ES,add_fire_to_attack,0,0,0,0
ES,add_water_to_attack,0,0,0,0
ES,add_earth_to_attack,0,0,0,0
ES,add_thunder_to_attack,0,0,0,0
ES,add_light_to_attack,0,0,0,0
ES,add_dark_to_attack,0,0,0,0

ES,revive,0,0,0,0
ES,lifesteal,0,0,0,0


ES,resistance_crit_damage,0,0,0,0
ES,resistance_element_damage,0,0,0,0
ES,resistance_spark_damage,0,0,0,0
ES,resistance_propotional_hp_damage,0,0,0,0
ES,resistance_aoe_damage,0,0,0,0
ES,resistance_ST_damage,0,0,0,0
ES,resistance_dot_damage,0,0,0,0
ES,resistance_normal_attack_damage,0,0,0,0

ES,guard_mitigation,0,0,0,0
ES,dot_mitigation,0,0,0,0

ES,all_mitigation,0,0,0,0
ES,fire_mitigation,0,0,0,0
ES,water_mitigation,0,0,0,0
ES,earth_mitigation,0,0,0,0
ES,thunder_mitigation,0,0,0,0
ES,light_mitigation,0,0,0,0
ES,dark_mitigation,0,0,0,0

ES,fire_barrier,0,0,0,0
ES,water_barrier,0,0,0,0
ES,earth_barrier,0,0,0,0
ES,thunder_barrier,0,0,0,0
ES,light_barrier,0,0,0,0
ES,dark_barrier,0,0,0,0

ES,fire_attack_boost,0,0,0,0
ES,water_attack_boost,0,0,0,0
ES,water_attack_boost,0,0,0,0
ES,earth_attack_boost,0,0,0,0
ES,thunder_attack_boost,0,0,0,0
ES,light_attack_boost,0,0,0,0
ES,dark_attack_boost,0,0,0,0

ES,fire_spark_boost,0,0,0,0
ES,water_spark_boost,0,0,0,0
ES,earth_spark_boost,0,0,0,0
ES,thunder_spark_boost,0,0,0,0
ES,light_spark_boost,0,0,0,0
ES,dark_spark_boost,0,0,0,0

ES,all_crit_damage_boost,0,0,0,0
ES,fire_crit_damage_boost,0,0,0,0
ES,water_crit_damage_boost,0,0,0,0
ES,earth_crit_damage_boost,0,0,0,0
ES,thunder_crit_damage_boost,0,0,0,0
ES,light_crit_damage_boost,0,0,0,0
ES,dark_crit_damage_boost,0,0,0,0

ES,bb_fill_turn_end,0,0,0,0
ES,bb_fill_turn_start,0,0,0,0
ES,bb_fill_when_attacked,0,0,0,0
ES,bb_fill_on_spark,0,0,0,0
ES,bb_fill_on_guard,0,0,0,0

ES,heal_when_attacked,0,0,0,0
ES,heal_on_spark,0,0,0,0

ES,ignore_defense,0,0,0,0

ES,spark_vulnerability,0,0,0,0
ES,crit_vulnerability,0,0,0,0
ES,element_vulnerability,0,0,0,0

ES,damage_spark_boost,0,0,0,0
ES,bc_spark_boost,0,0,0,0
ES,hc_spark_boost,0,0,0,0
ES,item_spark_boost,0,0,0,0

ES,def_to_atk,0,0,0,0
ES,rec_to_atk,0,0,0,0
ES,hp_to_atk,0,0,0,0

ES,atk_to_def,0,0,0,0
ES,rec_to_def,0,0,0,0
ES,hp_to_def,0,0,0,0

ES,atk_to_rec,0,0,0,0
ES,def_to_rec,0,0,0,0
ES,hp_to_rec,0,0,0,0

ES,atk_to_hp,0,0,0,0
ES,def_to_hp,0,0,0,0
ES,rec_to_hp,0,0,0,0

ES,self_def_to_atk,0,0,0,0
ES,self_rec_to_atk,0,0,0,0
ES,self_hp_to_atk,0,0,0,0

ES,self_atk_to_def,0,0,0,0
ES,self_rec_to_def,0,0,0,0
ES,self_hp_to_def,0,0,0,0

ES,self_atk_to_rec,0,0,0,0
ES,self_def_to_rec,0,0,0,0
ES,self_hp_to_rec,0,0,0,0

ES,self_atk_to_hp,0,0,0,0
ES,self_def_to_hp,0,0,0,0
ES,self_rec_to_hp,0,0,0,0

ES,hit_count_boost,0,0,0,0

ES,bb_drain,0,0,0,0
ES,LS_unlock,0,0,0,0
ES,negates_LS_lock,0,0,0,0
ES,sphere_unlock,0,0,0,0
ES,negates_sphere_lock,0,0,0,0
ES,ES_unlock,0,0,0,0
ES,negates_ES_lock,0,0,0,0

ES,OD_fill,0,0,0,0
ES,OD_fill_turn_start,0,0,0,0
ES,OD_fill_turn_end,0,0,0,0
ES,OD_fill_rate_boost,0,0,0,0

ES,OD_drain_negation,0,0,0,0

ES,Dot,0,0,0,0
ES,BB_atk_boost,100,0,0,0

ES,damage_counter,0,0,0,0
ES,bc_efficacy_boost,0,0,0,0
ES,bc_efficacy_reduc,0,0,0,0

ES,extra_action,0,0,0,0
ES,exp_boost,0,0,0,0

ES,taunt,0,0,0,0
ES,stealth,0,0,0,0
ES,evasion,0,0,0,0

ES,skip_turn,0,0,0,0
ES,time_stop,0,0,0,0

ES,max_hp_reduc,0,0,0,0
ES,bb_recast,0,0,0,0

BB,Hot,0,0,0,0

BB,all_unit_atk_boost,220,3,1,0
BB,fire_unit_atk_boost,0,0,0,0
BB,water_unit_atk_boost,0,0,0,0
BB,earth_unit_atk_boost,0,0,0,0
BB,thunder_unit_atk_boost,0,0,0,0
BB,light_unit_atk_boost,0,0,0,0
BB,dark_unit_atk_boost,0,0,0,0

BB,all_unit_def_boost,220,3,1,0
BB,fire_unit_def_boost,0,0,0,0
BB,water_unit_def_boost,0,0,0,0
BB,earth_unit_def_boost,0,0,0,0
BB,thunder_unit_def_boost,0,0,0,0
BB,light_unit_def_boost,0,0,0,0
BB,dark_unit_def_boost,0,0,0,0

BB,all_unit_rec_boost,220,3,1,0
BB,fire_unit_rec_boost,0,0,0,0
BB,water_unit_rec_boost,0,0,0,0
BB,earth_unit_rec_boost,0,0,0,0
BB,thunder_unit_rec_boost,0,0,0,0
BB,light_unit_rec_boost,0,0,0,0
BB,dark_unit_rec_boost,0,0,0,0

BB,all_unit_hp_boost,0,0,0,0
BB,fire_unit_hp_boost,0,0,0,0
BB,water_unit_hp_boost,0,0,0,0
BB,earth_unit_hp_boost,0,0,0,0
BB,thunder_unit_hp_boost,0,0,0,0
BB,light_unit_hp_boost,0,0,0,0
BB,dark_unit_hp_boost,0,0,0,0

BB,max_hp_boost,30,0,1,0

BB,crit_rate_boost,0,0,0,0

BB,all_unit_atk_reduc,0,0,0,0
BB,fire_unit_atk_reduc,0,0,0,0
BB,water_unit_atk_reduc,0,0,0,0
BB,earth_unit_atk_reduc,0,0,0,0
BB,thunder_unit_atk_reduc,0,0,0,0
BB,light_unit_atk_reduc,0,0,0,0
BB,dark_unit_atk_reduc,0,0,0,0

BB,all_unit_def_reduc,0,0,0,0
BB,fire_unit_def_reduc,0,0,0,0
BB,water_unit_def_reduc,0,0,0,0
BB,earth_unit_def_reduc,0,0,0,0
BB,thunder_unit_def_reduc,0,0,0,0
BB,light_unit_def_reduc,0,0,0,0
BB,dark_unit_def_reduc,0,0,0,0

BB,all_unit_rec_reduc,0,0,0,0
BB,fire_unit_rec_reduc,0,0,0,0
BB,water_unit_rec_reduc,0,0,0,0
BB,earth_unit_rec_reduc,0,0,0,0
BB,thunder_unit_rec_reduc,0,0,0,0
BB,light_unit_rec_reduc,0,0,0,0
BB,dark_unit_rec_reduc,0,0,0,0

BB,bc_drop_boost,0,0,0,0
BB,hc_drop_boost,0,0,0,0
BB,zel_drop_boost,0,0,0,0
BB,karma_drop_boost,0,0,0,0
BB,item_drop_boost,0,0,0,0

BB,ko_resistance,0,0,0,0

BB,self_atk_boost,0,0,0,0
BB,self_def_boost,0,0,0,0
BB,self_rec_boost,0,0,0,0
BB,self_hp_boost,0,0,0,0

BB,negates_atk_reduc,0,0,0,0
BB,negates_def_reduc,0,0,0,0
BB,negates_rec_reduc,0,0,0,0

BB,cleanse_atk_reduc,0,0,0,0
BB,cleanse_def_reduc,0,0,0,0
BB,cleanse_rec_reduc,0,0,0,0

BB,cleanse_poison,0,0,0,0
BB,cleanse_weakness,0,0,0,0
BB,cleanse_sickness,0,0,0,0
BB,cleanse_injury,0,0,0,0
BB,cleanse_curse,0,0,0,0
BB,cleanse_paralysis,0,0,0,0

BB,inflict_poison,100,0,3,85
BB,inflict_weakness,100,0,3,85
BB,inflict_sickness,100,0,3,85
BB,inflict_injury,100,0,3,85
BB,inflict_curse,100,0,3,85
BB,inflict_paralysis,100,0,3,85

BB,negates_poison,0,0,0,0
BB,negates_weakness,0,0,0,0
BB,negates_sickness,0,0,0,0
BB,negates_injury,0,0,0,0
BB,negates_curse,0,0,0,0
BB,negates_paralysis,0,0,0,0

BB,counter_poison,0,0,0,0
BB,counter_weakness,0,0,0,0
BB,counter_sickness,0,0,0,0
BB,counter_injury,0,0,0,0
BB,counter_curse,0,0,0,0
BB,counter_paralysis,0,0,0,0

BB,add_poison_to_attack,0,0,0,0
BB,add_weakness_to_attack,0,0,0,0
BB,add_sickness_to_attack,0,0,0,0
BB,add_injury_to_attack,0,0,0,0
BB,add_curse_to_attack,0,0,0,0
BB,add_paralysis_to_attack,0,0,0,0

BB,attack_boost_on_afflicted_foe,0,0,0,0

BB,add_fire_to_attack,100,3,0,0
BB,add_water_to_attack,100,3,0,0
BB,add_earth_to_attack,100,3,0,0
BB,add_thunder_to_attack,100,3,0,0
BB,add_light_to_attack,100,3,0,0
BB,add_dark_to_attack,100,3,0,0

BB,revive,0,0,0,0
BB,lifesteal,0,0,0,0


BB,resistance_crit_damage,0,0,0,0
BB,resistance_element_damage,0,0,0,0
BB,resistance_spark_damage,0,0,0,0
BB,resistance_propotional_hp_damage,0,0,0,0
BB,resistance_aoe_damage,0,0,0,0
BB,resistance_ST_damage,0,0,0,0
BB,resistance_dot_damage,0,0,0,0
BB,resistance_normal_attack_damage,0,0,0,0

BB,guard_mitigation,0,0,0,0
BB,dot_mitigation,0,0,0,0

BB,all_mitigation,0,0,0,0
BB,fire_mitigation,0,0,0,0
BB,water_mitigation,0,0,0,0
BB,earth_mitigation,0,0,0,0
BB,thunder_mitigation,0,0,0,0
BB,light_mitigation,0,0,0,0
BB,dark_mitigation,0,0,0,0

BB,fire_barrier,0,0,0,0
BB,water_barrier,0,0,0,0
BB,earth_barrier,0,0,0,0
BB,thunder_barrier,0,0,0,0
BB,light_barrier,0,0,0,0
BB,dark_barrier,0,0,0,0

BB,fire_attack_boost,0,0,0,0
BB,water_attack_boost,0,0,0,0
BB,earth_attack_boost,0,0,0,0
BB,thunder_attack_boost,0,0,0,0
BB,light_attack_boost,0,0,0,0
BB,dark_attack_boost,0,0,0,0

BB,fire_spark_boost,0,0,0,0
BB,water_spark_boost,0,0,0,0
BB,earth_spark_boost,0,0,0,0
BB,thunder_spark_boost,0,0,0,0
BB,light_spark_boost,0,0,0,0
BB,dark_spark_boost,0,0,0,0

BB,all_crit_damage_boost,0,0,0,0
BB,fire_crit_damage_boost,0,0,0,0
BB,water_crit_damage_boost,0,0,0,0
BB,earth_crit_damage_boost,0,0,0,0
BB,thunder_crit_damage_boost,0,0,0,0
BB,light_crit_damage_boost,0,0,0,0
BB,dark_crit_damage_boost,0,0,0,0

BB,bb_fill_turn_end,14,3,1,0
BB,bb_fill_turn_start,0,0,0,0
BB,bb_fill_when_attacked,0,0,0,0
BB,bb_fill_on_spark,0,0,0,0
BB,bb_fill_on_guard,0,0,0,0

BB,heal_when_attacked,0,0,0,0
BB,heal_on_spark,0,0,0,0

BB,ignore_defense,100,3,1,0

BB,spark_vulnerability,0,0,0,0
BB,crit_vulnerability,0,0,0,0
BB,element_vulnerability,0,0,0,0

BB,damage_spark_boost,0,0,0,0
BB,bc_spark_boost,0,0,0,0
BB,hc_spark_boost,0,0,0,0
BB,item_spark_boost,0,0,0,0

BB,def_to_atk,0,0,0,0
BB,rec_to_atk,0,0,0,0
BB,hp_to_atk,0,0,0,0

BB,atk_to_def,0,0,0,0
BB,rec_to_def,0,0,0,0
BB,hp_to_def,0,0,0,0

BB,atk_to_rec,0,0,0,0
BB,def_to_rec,0,0,0,0
BB,hp_to_rec,0,0,0,0

BB,atk_to_hp,0,0,0,0
BB,def_to_hp,0,0,0,0
BB,rec_to_hp,0,0,0,0

BB,self_def_to_atk,0,0,0,0
BB,self_rec_to_atk,0,0,0,0
BB,self_hp_to_atk,0,0,0,0

BB,self_atk_to_def,0,0,0,0
BB,self_rec_to_def,0,0,0,0
BB,self_hp_to_def,0,0,0,0

BB,self_atk_to_rec,0,0,0,0
BB,self_def_to_rec,0,0,0,0
BB,self_hp_to_rec,0,0,0,0

BB,self_atk_to_hp,0,0,0,0
BB,self_def_to_hp,0,0,0,0
BB,self_rec_to_hp,0,0,0,0

BB,hit_count_boost,0,0,0,0

BB,bb_drain,0,0,0,0
BB,LS_unlock,0,0,0,0
BB,negates_LS_lock,0,0,0,0
BB,sphere_unlock,0,0,0,0
BB,negates_sphere_lock,0,0,0,0
BB,ES_unlock,0,0,0,0
BB,negates_ES_lock,0,0,0,0

BB,OD_fill,0,0,0,0
BB,OD_fill_turn_start,0,0,0,0
BB,OD_fill_turn_end,0,0,0,0
BB,OD_fill_rate_boost,0,0,0,0

BB,OD_drain_negation,0,0,0,0

BB,Dot,0,0,0,0
BB,BB_atk_boost,0,0,0,0

BB,damage_counter,0,0,0,0
BB,bc_efficacy_boost,70,3,1,0
BB,bc_efficacy_reduc,0,0,0,0

BB,extra_action,0,0,0,0
BB,exp_boost,0,0,0,0

BB,taunt,0,0,0,0
BB,stealth,0,0,0,0
BB,evasion,0,0,0,0

BB,skip_turn,0,0,0,0
BB,time_stop,0,0,0,0

BB,max_hp_reduc,0,0,0,0
BB,bb_recast,0,0,0,0

SBB,Hot,0,0,0,0

SBB,all_unit_atk_boost,0,0,0,0
SBB,fire_unit_atk_boost,0,0,0,0
SBB,water_unit_atk_boost,0,0,0,0
SBB,earth_unit_atk_boost,0,0,0,0
SBB,thunder_unit_atk_boost,0,0,0,0
SBB,light_unit_atk_boost,0,0,0,0
SBB,dark_unit_atk_boost,0,0,0,0

SBB,all_unit_def_boost,0,0,0,0
SBB,fire_unit_def_boost,0,0,0,0
SBB,water_unit_def_boost,0,0,0,0
SBB,earth_unit_def_boost,0,0,0,0
SBB,thunder_unit_def_boost,0,0,0,0
SBB,light_unit_def_boost,0,0,0,0
SBB,dark_unit_def_boost,0,0,0,0

SBB,all_unit_rec_boost,0,0,0,0
SBB,fire_unit_rec_boost,0,0,0,0
SBB,water_unit_rec_boost,0,0,0,0
SBB,earth_unit_rec_boost,0,0,0,0
SBB,thunder_unit_rec_boost,0,0,0,0
SBB,light_unit_rec_boost,0,0,0,0
SBB,dark_unit_rec_boost,0,0,0,0

SBB,all_unit_hp_boost,0,0,0,0
SBB,fire_unit_hp_boost,0,0,0,0
SBB,water_unit_hp_boost,0,0,0,0
SBB,earth_unit_hp_boost,0,0,0,0
SBB,thunder_unit_hp_boost,0,0,0,0
SBB,light_unit_hp_boost,0,0,0,0
SBB,dark_unit_hp_boost,0,0,0,0

SBB,max_hp_boost,0,0,0,0

SBB,crit_rate_boost,60,3,1,0

SBB,all_unit_atk_reduc,0,0,0,0
SBB,fire_unit_atk_reduc,0,0,0,0
SBB,water_unit_atk_reduc,0,0,0,0
SBB,earth_unit_atk_reduc,0,0,0,0
SBB,thunder_unit_atk_reduc,0,0,0,0
SBB,light_unit_atk_reduc,0,0,0,0
SBB,dark_unit_atk_reduc,0,0,0,0

SBB,all_unit_def_reduc,0,0,0,0
SBB,fire_unit_def_reduc,0,0,0,0
SBB,water_unit_def_reduc,0,0,0,0
SBB,earth_unit_def_reduc,0,0,0,0
SBB,thunder_unit_def_reduc,0,0,0,0
SBB,light_unit_def_reduc,0,0,0,0
SBB,dark_unit_def_reduc,0,0,0,0

SBB,all_unit_rec_reduc,0,0,0,0
SBB,fire_unit_rec_reduc,0,0,0,0
SBB,water_unit_rec_reduc,0,0,0,0
SBB,earth_unit_rec_reduc,0,0,0,0
SBB,thunder_unit_rec_reduc,0,0,0,0
SBB,light_unit_rec_reduc,0,0,0,0
SBB,dark_unit_rec_reduc,0,0,0,0

SBB,bc_drop_boost,0,0,0,0
SBB,hc_drop_boost,0,0,0,0
SBB,zel_drop_boost,0,0,0,0
SBB,karma_drop_boost,0,0,0,0
SBB,item_drop_boost,0,0,0,0

SBB,ko_resistance,0,0,0,0

SBB,self_atk_boost,0,0,0,0
SBB,self_def_boost,0,0,0,0
SBB,self_rec_boost,0,0,0,0
SBB,self_hp_boost,0,0,0,0

SBB,negates_atk_reduc,0,0,0,0
SBB,negates_def_reduc,0,0,0,0
SBB,negates_rec_reduc,0,0,0,0

SBB,cleanse_atk_reduc,0,0,0,0
SBB,cleanse_def_reduc,0,0,0,0
SBB,cleanse_rec_reduc,0,0,0,0

SBB,cleanse_poison,0,0,0,0
SBB,cleanse_weakness,0,0,0,0
SBB,cleanse_sickness,0,0,0,0
SBB,cleanse_injury,0,0,0,0
SBB,cleanse_curse,0,0,0,0
SBB,cleanse_paralysis,0,0,0,0

SBB,inflict_poison,0,0,0,0
SBB,inflict_weakness,0,0,0,0
SBB,inflict_sickness,0,0,0,0
SBB,inflict_injury,0,0,0,0
SBB,inflict_curse,0,0,0,0
SBB,inflict_paralysis,0,0,0,0

SBB,negates_poison,0,0,0,0
SBB,negates_weakness,0,0,0,0
SBB,negates_sickness,0,0,0,0
SBB,negates_injury,0,0,0,0
SBB,negates_curse,0,0,0,0
SBB,negates_paralysis,0,0,0,0

SBB,counter_poison,0,0,0,0
SBB,counter_weakness,0,0,0,0
SBB,counter_sickness,0,0,0,0
SBB,counter_injury,0,0,0,0
SBB,counter_curse,0,0,0,0
SBB,counter_paralysis,0,0,0,0

SBB,add_poison_to_attack,100,3,1,25
SBB,add_weakness_to_attack,100,3,1,25
SBB,add_sickness_to_attack,100,3,1,25
SBB,add_injury_to_attack,100,3,1,25
SBB,add_curse_to_attack,100,3,1,25
SBB,add_paralysis_to_attack,100,3,1,25

SBB,attack_boost_on_afflicted_foe,250,3,1,0

SBB,add_fire_to_attack,100,3,1,0
SBB,add_water_to_attack,100,3,1,0
SBB,add_earth_to_attack,100,3,1,0
SBB,add_thunder_to_attack,100,3,1,0
SBB,add_light_to_attack,100,3,1,0
SBB,add_dark_to_attack,100,3,1,0

SBB,revive,0,0,0,0
SBB,lifesteal,0,0,0,0


SBB,resistance_crit_damage,0,0,0,0
SBB,resistance_element_damage,0,0,0,0
SBB,resistance_spark_damage,0,0,0,0
SBB,resistance_propotional_hp_damage,0,0,0,0
SBB,resistance_aoe_damage,0,0,0,0
SBB,resistance_ST_damage,0,0,0,0
SBB,resistance_dot_damage,0,0,0,0
SBB,resistance_normal_attack_damage,0,0,0,0

SBB,guard_mitigation,0,0,0,0
SBB,dot_mitigation,0,0,0,0

SBB,all_mitigation,0,0,0,0
SBB,fire_mitigation,0,0,0,0
SBB,water_mitigation,0,0,0,0
SBB,earth_mitigation,0,0,0,0
SBB,thunder_mitigation,0,0,0,0
SBB,light_mitigation,0,0,0,0
SBB,dark_mitigation,0,0,0,0

SBB,fire_barrier,0,0,0,0
SBB,water_barrier,0,0,0,0
SBB,earth_barrier,0,0,0,0
SBB,thunder_barrier,0,0,0,0
SBB,light_barrier,0,0,0,0
SBB,dark_barrier,0,0,0,0

SBB,fire_attack_boost,0,0,0,0
SBB,water_attack_boost,0,0,0,0
SBB,earth_attack_boost,0,0,0,0
SBB,thunder_attack_boost,0,0,0,0
SBB,light_attack_boost,0,0,0,0
SBB,dark_attack_boost,0,0,0,0

SBB,fire_spark_boost,0,0,0,0
SBB,water_spark_boost,0,0,0,0
SBB,earth_spark_boost,0,0,0,0
SBB,thunder_spark_boost,0,0,0,0
SBB,light_spark_boost,0,0,0,0
SBB,dark_spark_boost,0,0,0,0

SBB,all_crit_damage_boost,150,3,1,0
SBB,fire_crit_damage_boost,0,0,0,0
SBB,water_crit_damage_boost,0,0,0,0
SBB,earth_crit_damage_boost,0,0,0,0
SBB,thunder_crit_damage_boost,0,0,0,0
SBB,light_crit_damage_boost,0,0,0,0
SBB,dark_crit_damage_boost,0,0,0,0

SBB,bb_fill_turn_end,0,0,0,0
SBB,bb_fill_turn_start,0,0,0,0
SBB,bb_fill_when_attacked,0,0,0,0
SBB,bb_fill_on_spark,3.5,3,1,0
SBB,bb_fill_on_guard,0,0,0,0

SBB,heal_when_attacked,0,0,0,0
SBB,heal_on_spark,0,0,0,0

SBB,ignore_defense,100,3,1,0

SBB,spark_vulnerability,0,0,0,0
SBB,crit_vulnerability,0,0,0,0
SBB,element_vulnerability,0,0,0,0

SBB,damage_spark_boost,0,0,0,0
SBB,bc_spark_boost,0,0,0,0
SBB,hc_spark_boost,0,0,0,0
SBB,item_spark_boost,0,0,0,0

SBB,def_to_atk,0,0,0,0
SBB,rec_to_atk,0,0,0,0
SBB,hp_to_atk,0,0,0,0

SBB,atk_to_def,0,0,0,0
SBB,rec_to_def,0,0,0,0
SBB,hp_to_def,0,0,0,0

SBB,atk_to_rec,0,0,0,0
SBB,def_to_rec,0,0,0,0
SBB,hp_to_rec,0,0,0,0

SBB,atk_to_hp,0,0,0,0
SBB,def_to_hp,0,0,0,0
SBB,rec_to_hp,0,0,0,0

SBB,self_def_to_atk,0,0,0,0
SBB,self_rec_to_atk,0,0,0,0
SBB,self_hp_to_atk,0,0,0,0

SBB,self_atk_to_def,0,0,0,0
SBB,self_rec_to_def,0,0,0,0
SBB,self_hp_to_def,0,0,0,0

SBB,self_atk_to_rec,0,0,0,0
SBB,self_def_to_rec,0,0,0,0
SBB,self_hp_to_rec,0,0,0,0

SBB,self_atk_to_hp,0,0,0,0
SBB,self_def_to_hp,0,0,0,0
SBB,self_rec_to_hp,0,0,0,0

SBB,hit_count_boost,0,0,0,0

SBB,bb_drain,0,0,0,0
SBB,LS_unlock,0,0,0,0
SBB,negates_LS_lock,0,0,0,0
SBB,sphere_unlock,0,0,0,0
SBB,negates_sphere_lock,0,0,0,0
SBB,ES_unlock,0,0,0,0
SBB,negates_ES_lock,0,0,0,0

SBB,OD_fill,0,0,0,0
SBB,OD_fill_turn_start,0,0,0,0
SBB,OD_fill_turn_end,0,0,0,0
SBB,OD_fill_rate_boost,0,0,0,0

SBB,OD_drain_negation,0,0,0,0

SBB,Dot,0,0,0,0
SBB,BB_atk_boost,600,3,1,0

SBB,damage_counter,0,0,0,0
SBB,bc_efficacy_boost,0,0,0,0
SBB,bc_efficacy_reduc,0,0,0,0

SBB,extra_action,0,0,0,0
SBB,exp_boost,0,0,0,0

SBB,taunt,0,0,0,0
SBB,stealth,0,0,0,0
SBB,evasion,0,0,0,0

SBB,skip_turn,0,0,0,0
SBB,time_stop,0,0,0,0

SBB,max_hp_reduc,0,0,0,0
SBB,bb_recast,0,0,0,0

UBB,Hot,0,0,0,0

UBB,all_unit_atk_boost,450,4,1,0
UBB,fire_unit_atk_boost,0,0,0,0
UBB,water_unit_atk_boost,0,0,0,0
UBB,earth_unit_atk_boost,0,0,0,0
UBB,thunder_unit_atk_boost,0,0,0,0
UBB,light_unit_atk_boost,0,0,0,0
UBB,dark_unit_atk_boost,0,0,0,0

UBB,all_unit_def_boost,450,4,1,0
UBB,fire_unit_def_boost,0,0,0,0
UBB,water_unit_def_boost,0,0,0,0
UBB,earth_unit_def_boost,0,0,0,0
UBB,thunder_unit_def_boost,0,0,0,0
UBB,light_unit_def_boost,0,0,0,0
UBB,dark_unit_def_boost,0,0,0,0

UBB,all_unit_rec_boost,450,4,1,0
UBB,fire_unit_rec_boost,0,0,0,0
UBB,water_unit_rec_boost,0,0,0,0
UBB,earth_unit_rec_boost,0,0,0,0
UBB,thunder_unit_rec_boost,0,0,0,0
UBB,light_unit_rec_boost,0,0,0,0
UBB,dark_unit_rec_boost,0,0,0,0

UBB,all_unit_hp_boost,0,0,0,0
UBB,fire_unit_hp_boost,0,0,0,0
UBB,water_unit_hp_boost,0,0,0,0
UBB,earth_unit_hp_boost,0,0,0,0
UBB,thunder_unit_hp_boost,0,0,0,0
UBB,light_unit_hp_boost,0,0,0,0
UBB,dark_unit_hp_boost,0,0,0,0

UBB,max_hp_boost,0,0,0,0

UBB,crit_rate_boost,60,4,1,0

UBB,all_unit_atk_reduc,0,0,0,0
UBB,fire_unit_atk_reduc,0,0,0,0
UBB,water_unit_atk_reduc,0,0,0,0
UBB,earth_unit_atk_reduc,0,0,0,0
UBB,thunder_unit_atk_reduc,0,0,0,0
UBB,light_unit_atk_reduc,0,0,0,0
UBB,dark_unit_atk_reduc,0,0,0,0

UBB,all_unit_def_reduc,0,0,0,0
UBB,fire_unit_def_reduc,0,0,0,0
UBB,water_unit_def_reduc,0,0,0,0
UBB,earth_unit_def_reduc,0,0,0,0
UBB,thunder_unit_def_reduc,0,0,0,0
UBB,light_unit_def_reduc,0,0,0,0
UBB,dark_unit_def_reduc,0,0,0,0

UBB,all_unit_rec_reduc,0,0,0,0
UBB,fire_unit_rec_reduc,0,0,0,0
UBB,water_unit_rec_reduc,0,0,0,0
UBB,earth_unit_rec_reduc,0,0,0,0
UBB,thunder_unit_rec_reduc,0,0,0,0
UBB,light_unit_rec_reduc,0,0,0,0
UBB,dark_unit_rec_reduc,0,0,0,0

UBB,bc_drop_boost,0,0,0,0
UBB,hc_drop_boost,0,0,0,0
UBB,zel_drop_boost,0,0,0,0
UBB,karma_drop_boost,0,0,0,0
UBB,item_drop_boost,0,0,0,0

UBB,ko_resistance,0,0,0,0

UBB,self_atk_boost,0,0,0,0
UBB,self_def_boost,0,0,0,0
UBB,self_rec_boost,0,0,0,0
UBB,self_hp_boost,0,0,0,0

UBB,negates_atk_reduc,0,0,0,0
UBB,negates_def_reduc,0,0,0,0
UBB,negates_rec_reduc,0,0,0,0

UBB,cleanse_atk_reduc,0,0,0,0
UBB,cleanse_def_reduc,0,0,0,0
UBB,cleanse_rec_reduc,0,0,0,0

UBB,cleanse_poison,0,0,0,0
UBB,cleanse_weakness,0,0,0,0
UBB,cleanse_sickness,0,0,0,0
UBB,cleanse_injury,0,0,0,0
UBB,cleanse_curse,0,0,0,0
UBB,cleanse_paralysis,0,0,0,0

UBB,inflict_poison,0,0,0,0
UBB,inflict_weakness,0,0,0,0
UBB,inflict_sickness,0,0,0,0
UBB,inflict_injury,0,0,0,0
UBB,inflict_curse,0,0,0,0
UBB,inflict_paralysis,0,0,0,0

UBB,negates_poison,0,0,0,0
UBB,negates_weakness,0,0,0,0
UBB,negates_sickness,0,0,0,0
UBB,negates_injury,0,0,0,0
UBB,negates_curse,0,0,0,0
UBB,negates_paralysis,0,0,0,0

UBB,counter_poison,0,0,0,0
UBB,counter_weakness,0,0,0,0
UBB,counter_sickness,0,0,0,0
UBB,counter_injury,0,0,0,0
UBB,counter_curse,0,0,0,0
UBB,counter_paralysis,0,0,0,0

UBB,add_poison_to_attack,100,3,1,0
UBB,add_weakness_to_attack,100,3,1,0
UBB,add_sickness_to_attack,100,3,1,0
UBB,add_injury_to_attack,100,3,1,0
UBB,add_curse_to_attack,100,3,1,0
UBB,add_paralysis_to_attack,100,3,1,0

UBB,attack_boost_on_afflicted_foe,0,0,0,0

UBB,add_fire_to_attack,100,3,1,0
UBB,add_water_to_attack,100,3,1,0
UBB,add_earth_to_attack,100,3,1,0
UBB,add_thunder_to_attack,100,3,1,0
UBB,add_light_to_attack,100,3,1,0
UBB,add_dark_to_attack,100,3,1,0

UBB,revive,0,0,0,0
UBB,lifesteal,0,0,0,0


UBB,resistance_crit_damage,0,0,0,0
UBB,resistance_element_damage,0,0,0,0
UBB,resistance_spark_damage,0,0,0,0
UBB,resistance_propotional_hp_damage,0,0,0,0
UBB,resistance_aoe_damage,0,0,0,0
UBB,resistance_ST_damage,0,0,0,0
UBB,resistance_dot_damage,0,0,0,0
UBB,resistance_normal_attack_damage,0,0,0,0

UBB,guard_mitigation,0,0,0,0
UBB,dot_mitigation,0,0,0,0

UBB,all_mitigation,0,0,0,0
UBB,fire_mitigation,0,0,0,0
UBB,water_mitigation,0,0,0,0
UBB,earth_mitigation,0,0,0,0
UBB,thunder_mitigation,0,0,0,0
UBB,light_mitigation,0,0,0,0
UBB,dark_mitigation,0,0,0,0

UBB,fire_barrier,0,0,0,0
UBB,water_barrier,0,0,0,0
UBB,earth_barrier,0,0,0,0
UBB,thunder_barrier,0,0,0,0
UBB,light_barrier,0,0,0,0
UBB,dark_barrier,0,0,0,0

UBB,fire_attack_boost,0,0,0,0
UBB,water_attack_boost,0,0,0,0
UBB,earth_attack_boost,0,0,0,0
UBB,thunder_attack_boost,0,0,0,0
UBB,light_attack_boost,0,0,0,0
UBB,dark_attack_boost,0,0,0,0

UBB,fire_spark_boost,0,0,0,0
UBB,water_spark_boost,0,0,0,0
UBB,earth_spark_boost,0,0,0,0
UBB,thunder_spark_boost,0,0,0,0
UBB,light_spark_boost,0,0,0,0
UBB,dark_spark_boost,0,0,0,0

UBB,all_crit_damage_boost,0,0,0,0
UBB,fire_crit_damage_boost,0,0,0,0
UBB,water_crit_damage_boost,0,0,0,0
UBB,earth_crit_damage_boost,0,0,0,0
UBB,thunder_crit_damage_boost,0,0,0,0
UBB,light_crit_damage_boost,0,0,0,0
UBB,dark_crit_damage_boost,0,0,0,0


UBB,bb_fill_turn_end,100,4,1,0
UBB,bb_fill_turn_start,0,0,0,0
UBB,bb_fill_when_attacked,0,0,0,0
UBB,bb_fill_on_spark,6.5,4,1,0
UBB,bb_fill_on_guard,0,0,0,0

UBB,heal_when_attacked,0,0,0,0
UBB,heal_on_spark,0,0,0,0

UBB,ignore_defense,0,0,0,0

UBB,spark_vulnerability,0,0,0,0
UBB,crit_vulnerability,0,0,0,0
UBB,element_vulnerability,0,0,0,0

UBB,damage_spark_boost,0,0,0,0
UBB,bc_spark_boost,0,0,0,0
UBB,hc_spark_boost,0,0,0,0
UBB,item_spark_boost,0,0,0,0

UBB,def_to_atk,0,0,0,0
UBB,rec_to_atk,0,0,0,0
UBB,hp_to_atk,0,0,0,0

UBB,atk_to_def,0,0,0,0
UBB,rec_to_def,0,0,0,0
UBB,hp_to_def,0,0,0,0

UBB,atk_to_rec,0,0,0,0
UBB,def_to_rec,0,0,0,0
UBB,hp_to_rec,0,0,0,0

UBB,atk_to_hp,0,0,0,0
UBB,def_to_hp,0,0,0,0
UBB,rec_to_hp,0,0,0,0

UBB,self_def_to_atk,0,0,0,0
UBB,self_rec_to_atk,0,0,0,0
UBB,self_hp_to_atk,0,0,0,0

UBB,self_atk_to_def,0,0,0,0
UBB,self_rec_to_def,0,0,0,0
UBB,self_hp_to_def,0,0,0,0

UBB,self_atk_to_rec,0,0,0,0
UBB,self_def_to_rec,0,0,0,0
UBB,self_hp_to_rec,0,0,0,0

UBB,self_atk_to_hp,0,0,0,0
UBB,self_def_to_hp,0,0,0,0
UBB,self_rec_to_hp,0,0,0,0

UBB,hit_count_boost,0,0,0,0

UBB,bb_drain,0,0,0,0
UBB,LS_unlock,0,0,0,0
UBB,negates_LS_lock,0,0,0,0
UBB,sphere_unlock,0,0,0,0
UBB,negates_sphere_lock,0,0,0,0
UBB,ES_unlock,0,0,0,0
UBB,negates_ES_lock,0,0,0,0

UBB,OD_fill,0,0,0,0
UBB,OD_fill_turn_start,0,0,0,0
UBB,OD_fill_turn_end,0,0,0,0
UBB,OD_fill_rate_boost,0,0,0,0

UBB,OD_drain_negation,0,0,0,0

UBB,Dot,0,0,0,0
UBB,BB_atk_boost,1000,4,1,0

UBB,damage_counter,0,0,0,0
UBB,bc_efficacy_boost,0,0,0,0
UBB,bc_efficacy_reduc,0,0,0,0

UBB,extra_action,0,0,0,0
UBB,exp_boost,0,0,0,0

UBB,taunt,0,0,0,0
UBB,stealth,0,0,0,0
UBB,evasion,0,0,0,0

UBB,skip_turn,0,0,0,0
UBB,time_stop,0,0,0,0

UBB,max_hp_reduc,0,0,0,0
UBB,bb_recast,0,0,0,0