Elgif
nom, LightOracleLv2

origine,buff,efficacite,duree,cible,probabilite
probabilite_0 = 100

EL,Hot,0,0,0,0

EL,all_unit_atk_boost,0,0,0,0
EL,fire_unit_atk_boost,0,0,0,0
EL,water_unit_atk_boost,0,0,0,0
EL,earth_unit_atk_boost,0,0,0,0
EL,thunder_unit_atk_boost,0,0,0,0
EL,light_unit_atk_boost,25,0,0,0
EL,dark_unit_atk_boost,0,0,0,0

EL,all_unit_def_boost,0,0,0,0
EL,fire_unit_def_boost,0,0,0,0
EL,water_unit_def_boost,0,0,0,0
EL,earth_unit_def_boost,0,0,0,0
EL,thunder_unit_def_boost,0,0,0,0
EL,light_unit_def_boost,25,0,0,0
EL,dark_unit_def_boost,0,0,0,0

EL,all_unit_rec_boost,0,0,0,0
EL,fire_unit_rec_boost,0,0,0,0
EL,water_unit_rec_boost,0,0,0,0
EL,earth_unit_rec_boost,0,0,0,0
EL,thunder_unit_rec_boost,0,0,0,0
EL,light_unit_rec_boost,25,0,0,0
EL,dark_unit_rec_boost,0,0,0,0

EL,all_unit_hp_boost,0,0,0,0
EL,fire_unit_hp_boost,0,0,0,0
EL,water_unit_hp_boost,0,0,0,0
EL,earth_unit_hp_boost,0,0,0,0
EL,thunder_unit_hp_boost,0,0,0,0
EL,light_unit_hp_boost,25,0,0,0
EL,dark_unit_hp_boost,0,0,0,0

EL,max_hp_boost,0,0,0,0

EL,crit_rate_boost,0,0,0,0

EL,all_unit_atk_reduc,0,0,0,0
EL,fire_unit_atk_reduc,0,0,0,0
EL,water_unit_atk_reduc,0,0,0,0
EL,earth_unit_atk_reduc,0,0,0,0
EL,thunder_unit_atk_reduc,0,0,0,0
EL,light_unit_atk_reduc,0,0,0,0
EL,dark_unit_atk_reduc,0,0,0,0

EL,all_unit_def_reduc,0,0,0,0
EL,fire_unit_def_reduc,0,0,0,0
EL,water_unit_def_reduc,0,0,0,0
EL,earth_unit_def_reduc,0,0,0,0
EL,thunder_unit_def_reduc,0,0,0,0
EL,light_unit_def_reduc,0,0,0,0
EL,dark_unit_def_reduc,0,0,0,0

EL,all_unit_rec_reduc,0,0,0,0
EL,fire_unit_rec_reduc,0,0,0,0
EL,water_unit_rec_reduc,0,0,0,0
EL,earth_unit_rec_reduc,0,0,0,0
EL,thunder_unit_rec_reduc,0,0,0,0
EL,light_unit_rec_reduc,0,0,0,0
EL,dark_unit_rec_reduc,0,0,0,0

EL,bc_drop_boost,0,0,0,0
EL,hc_drop_boost,0,0,0,0
EL,zel_drop_boost,0,0,0,0
EL,karma_drop_boost,0,0,0,0
EL,item_drop_boost,0,0,0,0

EL,ko_resistance,0,0,0,0

EL,self_atk_boost,0,0,0,0
EL,self_def_boost,0,0,0,0
EL,self_rec_boost,0,0,0,0
EL,self_hp_boost,0,0,0,0

EL,negates_atk_reduc0,0,0,0,0
EL,negates_def_reduc,0,0,0,0
EL,negates_rec_reduc,0,0,0,0

EL,cleanse_atk_reduc,0,0,0,0
EL,cleanse_def_reduc,0,0,0,0
EL,cleanse_rec_reduc,0,0,0,0

EL,cleanse_poison,0,0,0,0
EL,cleanse_weakness,0,0,0,0
EL,cleanse_sickness,0,0,0,0
EL,cleanse_injury,0,0,0,0
EL,cleanse_curse,0,0,0,0
EL,cleanse_paralysis,0,0,0,0

EL,inflict_poison,0,0,0,0
EL,inflict_weakness,0,0,0,0
EL,inflict_sickness,0,0,0,0
EL,inflict_injury,0,0,0,0
EL,inflict_curse,0,0,0,0
EL,inflict_paralysis,0,0,0,0

EL,negates_poison,0,0,0,0
EL,negates_weakness,0,0,0,0
EL,negates_sickness,0,0,0,0
EL,negates_injury,0,0,0,0
EL,negates_curse,0,0,0,0
EL,negates_paralysis,0,0,0,0

EL,counter_poison,0,0,0,0
EL,counter_weakness,0,0,0,0
EL,counter_sickness,0,0,0,0
EL,counter_injury,0,0,0,0
EL,counter_curse,0,0,0,0
EL,counter_paralysis,0,0,0,0

EL,add_poison_to_attack,0,0,0,0
EL,add_weakness_to_attack,0,0,0,0
EL,add_sickness_to_attack,0,0,0,0
EL,add_injury_to_attack,0,0,0,0
EL,add_curse_to_attack,0,0,0,0
EL,add_paralysis_to_attack,0,0,0,0

EL,attack_boost_on_afflicted_foe,0,0,0,0

EL,add_fire_to_attack,0,0,0,0
EL,add_water_to_attack,0,0,0,0
EL,add_earth_to_attack,0,0,0,0
EL,add_thunder_to_attack,0,0,0,0
EL,add_light_to_attack,0,0,0,0
EL,add_dark_to_attack,0,0,0,0

EL,revive,0,0,0,0
EL,lifesteal,0,0,0,0


EL,resistance_crit_damage,0,0,0,0
EL,resistance_element_damage,0,0,0,0
EL,resistance_spark_damage,0,0,0,0
EL,resistance_propotional_hp_damage,0,0,0,0
EL,resistance_aoe_damage,0,0,0,0
EL,resistance_ST_damage,0,0,0,0
EL,resistance_dot_damage,0,0,0,0
EL,resistance_normal_attack_damage,0,0,0,0

EL,guard_mitigation,0,0,0,0
EL,dot_mitigation,0,0,0,0

EL,damage_reduc_to_1,0,0,0,0
EL,all_mitigation,0,0,0,0
EL,fire_mitigation,0,0,0,0
EL,water_mitigation,0,0,0,0
EL,earth_mitigation,0,0,0,0
EL,thunder_mitigation,0,0,0,0
EL,light_mitigation,0,0,0,0
EL,dark_mitigation,0,0,0,0

EL,fire_barrier,0,0,0,0
EL,water_barrier,0,0,0,0
EL,earth_barrier,0,0,0,0
EL,thunder_barrier,0,0,0,0
EL,light_barrier,0,0,0,0
EL,dark_barrier,0,0,0,0

EL,fire_attack_boost,0,0,0,0
EL,water_attack_boost,0,0,0,0
EL,earth_attack_boost,0,0,0,0
EL,thunder_attack_boost,0,0,0,0
EL,light_attack_boost,0,0,0,0
EL,dark_attack_boost,0,0,0,0

EL,fire_spark_boost,0,0,0,0
EL,water_spark_boost,0,0,0,0
EL,earth_spark_boost,0,0,0,0
EL,thunder_spark_boost,0,0,0,0
EL,light_spark_boost,0,0,0,0
EL,dark_spark_boost,0,0,0,0

EL,all_crit_damage_boost,0,0,0,0
EL,fire_crit_damage_boost,0,0,0,0
EL,water_crit_damage_boost,0,0,0,0
EL,earth_crit_damage_boost,0,0,0,0
EL,thunder_crit_damage_boost,0,0,0,0
EL,light_crit_damage_boost,0,0,0,0
EL,dark_crit_damage_boost,0,0,0,0

EL,add_fire_to_attack,0,0,0,0
EL,add_water_to_attack,0,0,0,0
EL,add_earth_to_attack,0,0,0,0
EL,add_thunder_to_attack,0,0,0,0
EL,add_light_to_attack,0,0,0,0
EL,add_dark_to_attack,0,0,0,0

EL,bb_fill_turn_end,0,0,0,0
EL,bb_fill_turn_start,0,0,0,0
EL,bb_fill_when_attacked,0,0,0,0
EL,bb_fill_on_spark,0,0,0,0
EL,bb_fill_on_guard,0,0,0,0

EL,heal_when_attacked,0,0,0,0
EL,heal_on_spark,0,0,0,0

EL,ignore_defense,0,0,0,0

EL,spark_vulnerability,0,0,0,0
EL,crit_vulnerability,0,0,0,0
EL,element_vulnerability,0,0,0,0

EL,damage_spark_boost,0,0,0,0
EL,bc_spark_boost,0,0,0,0
EL,hc_spark_boost,0,0,0,0
EL,item_spark_boost,0,0,0,0

EL,def_to_atk,0,0,0,0
EL,rec_to_atk,0,0,0,0
EL,hp_to_atk,0,0,0,0

EL,atk_to_def,0,0,0,0
EL,rec_to_def,0,0,0,0
EL,hp_to_def,0,0,0,0

EL,atk_to_rec,0,0,0,0
EL,def_to_rec,0,0,0,0
EL,hp_to_rec,0,0,0,0

EL,atk_to_hp,0,0,0,0
EL,def_to_hp,0,0,0,0
EL,rec_to_hp,0,0,0,0

EL,self_def_to_atk,0,0,0,0
EL,self_rec_to_atk,0,0,0,0
EL,self_hp_to_atk,0,0,0,0

EL,self_atk_to_def,0,0,0,0
EL,self_rec_to_def,0,0,0,0
EL,self_hp_to_def,0,0,0,0

EL,self_atk_to_rec,0,0,0,0
EL,self_def_to_rec,0,0,0,0
EL,self_hp_to_rec,0,0,0,0

EL,self_atk_to_hp,0,0,0,0
EL,self_def_to_hp,0,0,0,0
EL,self_rec_to_hp,0,0,0,0

EL,hit_count_boost,0,0,0,0

EL,bb_drain,0,0,0,0
EL,LS_unlock,0,0,0,0
EL,negates_LS_lock,0,0,0,0
EL,sphere_unlock,0,0,0,0
EL,negates_sphere_lock,0,0,0,0
EL,ES_unlock,0,0,0,0
EL,negates_ES_lock,0,0,0,0

EL,OD_fill,0,0,0,0
EL,OD_fill_turn_start,0,0,0,0
EL,OD_fill_turn_end,0,0,0,0
EL,OD_fill_rate_boost,0,0,0,0

EL,OD_drain_negation,0,0,0,0

EL,Dot,0,0,0,0
EL,BB_atk_boost,0,0,0,0

EL,damage_counter,0,0,0,0
EL,bc_efficacy_boost,0,0,0,0
EL,bc_efficacy_reduc,0,0,0,0

EL,extra_action,0,0,0,0
EL,exp_boost,0,0,0,0

EL,taunt,0,0,0,0
EL,stealth,0,0,0,0
EL,evasion,0,0,0,0

EL,skip_turn,0,0,0,0
EL,time_stop,0,0,0,0

EL,max_hp_reduc,0,0,0,0
EL,bb_recast,0,0,0,0